{
    "books": {
        "1.mose": 1,
        "2.mose": 2,
        "3.mose": 3,
        "4.mose": 4,
        "5.mose": 5,
        "josua": 6,
        "richter": 7,
        "rut": 8,
        "1.samuel": 9,
        "2.samuel": 10,
        "1.könige": 11,
        "2.könige": 12,
        "1.chronik": 13,
        "2.chronik": 14,
        "esra": 15,
        "nehemia": 16,
        "esther": 17,
        "hiob": 18,
        "psalmen": 19,
        "sprüche": 20,
        "prediger": 21,
        "hoheslied": 22,
        "jesaja": 23,
        "jeremia": 24,
        "klagelieder": 25,
        "hesekiel": 26,
        "daniel": 27,
        "hosea": 28,
        "joel": 29,
        "amos": 30,
        "obadja": 31,
        "jona": 32,
        "micha": 33,
        "nahum": 34,
        "habakuk": 35,
        "zefanja": 36,
        "haggai": 37,
        "sacharja": 38,
        "maleachi": 39,
        "matthäus": 40,
        "markus": 41,
        "lukas": 42,
        "johannes": 43,
        "apostelgeschichte": 44,
        "römer": 45,
        "1.korinther": 46,
        "2.korinther": 47,
        "galater": 48,
        "epheser": 49,
        "philipper": 50,
        "kolosser": 51,
        "1.thessalonicher": 52,
        "2.thessalonicher": 53,
        "1.timotheus": 54,
        "2.timotheus": 55,
        "titus": 56,
        "whatsappanphil": 57,
        "hebräer": 58,
        "jakobus": 59,
        "1.petrus": 60,
        "2.petrus": 61,
        "1.johannes": 62,
        "2.johannes": 63,
        "3.johannes": 64,
        "mailvonjudas": 65,
        "offenbarung": 66
    }
}
